{
          "title" : "Image Mesh Mapping",
           "kind" : "process",
           "type" : "imageMeshMapping",
           "tags" : ["image","mesh","mapping"],
    "description" : "",
         "inputs" : ["image","mesh"],
         "outputs": ["resMesh"]
}
