{
          "title" : "Imaging Mesh Reader",
           "kind" : "process",
           "type" : "ImageMeshReader",
           "tags" : ["reader","mesh","imaging"],
    "description" : "<h3>Reader mesh reader</h3>
                     <p>Produce a mesh from the given file</p>",
         "inputs" : ["path"],
        "outputs" : ["mesh"]
}
