{
          "title" : "Meshing Filter",
           "kind" : "process",
           "type" : "vtkFilter",
           "tags" : ["filter","mesh","mask"],
    "description" : "<h3>Filter vtkMeshing</h3>
                     <p>Creates a mesh from a mask</p>",
         "inputs" : ["mask"],
         "outputs": ["mesh"]
}
