{
          "title" : "Multiply Filter",
           "kind" : "process",
           "type" : "itkMultiplyFilter",
           "tags" : ["filter","multiply","imaging"],
    "description" : "<h3>Filter itkMultiplyFilter</h3>
                     <p>Apply the multiply filter provided by ITK</p>",
         "inputs" : ["radius","image"],
         "outputs": ["image"]
}
