{
          "title" : "Threshold Filter",
           "kind" : "process",
           "type" : "threshold",
           "tags" : ["filter","threshold","testme"],
    "description" : "",
         "inputs" : ["threshold","outsideValue","mode","image"],
         "outputs": ["filteredImage"]
}
